<svg id="tick-circle_linear" data-name="tick-circle/linear" xmlns="http://www.w3.org/2000/svg" width="24" height="24" viewBox="0 0 24 24">
  <g id="vuesax_linear_tick-circle" data-name="vuesax/linear/tick-circle">
    <g id="tick-circle">
      <path id="Vector" d="M10,20A10,10,0,1,0,0,10,10.029,10.029,0,0,0,10,20Z" transform="translate(2 2)" fill="none" stroke="#00cc30" stroke-linecap="round" stroke-linejoin="round" stroke-width="1.5"/>
      <path id="Vector-2" data-name="Vector" d="M0,2.83,2.83,5.66,8.5,0" transform="translate(7.75 9.17)" fill="none" stroke="#00cc30" stroke-linecap="round" stroke-linejoin="round" stroke-width="1.5"/>
      <path id="Vector-3" data-name="Vector" d="M0,0H24V24H0Z" fill="none" opacity="0"/>
    </g>
  </g>
</svg>
