<svg id="vuesax_linear_export" data-name="vuesax/linear/export" xmlns="http://www.w3.org/2000/svg" width="24" height="24" viewBox="0 0 24 24">
  <g id="export">
    <path id="Vector" d="M0,2.56,2.56,0,5.12,2.56" transform="translate(9.32 3.94)" fill="none" stroke="#1aaec8" stroke-linecap="round" stroke-linejoin="round" stroke-width="1.5"/>
    <path id="Vector-2" data-name="Vector" d="M0,10.17V0" transform="translate(11.88 4.01)" fill="none" stroke="#1aaec8" stroke-linecap="round" stroke-linejoin="round" stroke-width="1.5"/>
    <path id="Vector-3" data-name="Vector" d="M0,0A7.651,7.651,0,0,0,8,8a7.651,7.651,0,0,0,8-8" transform="translate(4 12)" fill="none" stroke="#1aaec8" stroke-linecap="round" stroke-linejoin="round" stroke-width="1.5"/>
    <path id="Vector-4" data-name="Vector" d="M0,0H24V24H0Z" transform="translate(24 24) rotate(180)" fill="none" opacity="0"/>
  </g>
</svg>
